raw-data/csv/TEK0224.CSV

Record Length,2.500000e+03,,  -0.000250000000,   0.00080,
Sample Interval,1.000000e-06,,  -0.000249000000,   0.00080,
Trigger Point,2.500000000000e+02,,  -0.000248000000,   0.00080,
,,,  -0.000247000000,   0.00000,
,,,  -0.000246000000,   0.00080,
,,,  -0.000245000000,   0.00000,
Source,CH1,,  -0.000244000000,   0.00000,
Vertical Units,V,,  -0.000243000000,   0.00080,
Vertical Scale,2.000000e-02,,  -0.000242000000,   0.00080,
Vertical Offset,8.000000e-03,,  -0.000241000000,   0.00080,
Horizontal Units,s,,  -0.000240000000,   0.00000,
Horizontal Scale,2.500000e-04,,  -0.000239000000,   0.00080,
Pt Fmt,Y,,  -0.000238000000,   0.00080,
Yzero,0.000000e+00,,  -0.000237000000,   0.00080,
Probe Atten,1.000000e+00,,  -0.000236000000,   0.00080,
Firmware Version,FV:v6.08,,  -0.000235000000,   0.00000,
,,,-00.000234000000,   0.00080,
,,,-00.000233000000,   0.00000,
,,,-00.000232000000,   0.00080,
,,,-00.000231000000,   0.00080,
,,,-00.000230000000,  -0.00160,
,,,-00.000229000000,   0.00000,
,,,-00.000228000000,   0.00080,
,,,-00.000227000000,   0.00080,
,,,-00.000226000000,   0.00000,
,,,-00.000225000000,   0.00000,
,,,-00.000224000000,   0.00000,
,,,-00.000223000000,   0.00160,
,,,-00.000222000000,   0.00080,
,,,-00.000221000000,   0.00080,
,,,-00.000220000000,   0.00080,
,,,-00.000219000000,   0.00080,
,,,-00.000218000000,   0.00000,
,,,-00.000217000000,   0.00080,
,,,-00.000216000000,   0.00080,
,,,-00.000215000000,   0.00080,
,,,-00.000214000000,   0.00080,
,,,-00.000213000000,   0.00080,
,,,-00.000212000000,   0.00080,
,,,-00.000211000000,   0.00080,
,,,-00.000210000000,   0.00000,
,,,-00.000209000000,   0.00080,
,,,-00.000208000000,   0.00080,
,,,-00.000207000000,   0.00080,
,,,-00.000206000000,   0.00080,
,,,-00.000205000000,   0.00160,
,,,-00.000204000000,   0.00000,
,,,-00.000203000000,   0.00080,
,,,-00.000202000000,   0.00000,
,,,-00.000201000000,   0.00080,
,,,-00.000200000000,   0.00080,
,,,-00.000199000000,   0.00080,
,,,-00.000198000000,   0.00000,
,,,-00.000197000000,   0.00080,
,,,-00.000196000000,   0.00000,
,,,-00.000195000000,   0.00080,
,,,-00.000194000000,   0.00000,
,,,-00.000193000000,   0.00080,
,,,-00.000192000000,   0.00000,
,,,-00.000191000000,   0.00000,
,,,-00.000190000000,   0.00080,
,,,-00.000189000000,   0.00000,
,,,-00.000188000000,   0.00000,
,,,-00.000187000000,   0.00080,
,,,-00.000186000000,   0.00080,
,,,-00.000185000000,   0.00080,
,,,-00.000184000000,   0.00000,
,,,-00.000183000000,   0.00000,
,,,-00.000182000000,   0.00080,
,,,-00.000181000000,   0.00080,
,,,-00.000180000000,   0.00080,
,,,-00.000179000000,   0.00000,
,,,-00.000178000000,   0.00080,
,,,-00.000177000000,   0.00080,
,,,-00.000176000000,   0.00080,
,,,-00.000175000000,   0.00000,
,,,-00.000174000000,   0.00080,
,,,-00.000173000000,   0.00080,
,,,-00.000172000000,   0.00000,
,,,-00.000171000000,   0.00080,
,,,-00.000170000000,   0.00080,
,,,-00.000169000000,   0.00000,
,,,-00.000168000000,   0.00080,
,,,-00.000167000000,   0.00080,
,,,-00.000166000000,   0.00080,
,,,-00.000165000000,   0.00000,
,,,-00.000164000000,   0.00080,
,,,-00.000163000000,   0.00000,
,,,-00.000162000000,   0.00080,
,,,-00.000161000000,   0.00080,
,,,-00.000160000000,   0.00080,
,,,-00.000159000000,   0.00080,
,,,-00.000158000000,   0.00080,
,,,-00.000157000000,   0.00080,
,,,-00.000156000000,   0.00000,
,,,-00.000155000000,   0.00080,
,,,-00.000154000000,   0.00080,
,,,-00.000153000000,   0.00080,
,,,-00.000152000000,   0.00080,
,,,-00.000151000000,   0.00000,
,,,-00.000150000000,   0.00080,
,,,-00.000149000000,   0.00080,
,,,-00.000148000000,   0.00000,
,,,-00.000147000000,   0.00000,
,,,-00.000146000000,   0.00000,
,,,-00.000145000000,   0.00080,
,,,-00.000144000000,   0.00080,
,,,-00.000143000000,   0.00080,
,,,-00.000142000000,   0.00080,
,,,-00.000141000000,   0.00080,
,,,-00.000140000000,   0.00000,
,,,-00.000139000000,   0.00080,
,,,-00.000138000000,   0.00080,
,,,-00.000137000000,   0.00000,
,,,-00.000136000000,   0.00080,
,,,-00.000135000000,   0.00080,
,,,-00.000134000000,   0.00080,
,,,-00.000133000000,   0.00000,
,,,-00.000132000000,   0.00000,
,,,-00.000131000000,   0.00080,
,,,-00.000130000000,   0.00080,
,,,-00.000129000000,   0.00080,
,,,-00.000128000000,   0.00000,
,,,-00.000127000000,   0.00080,
,,,-00.000126000000,   0.00080,
,,,-00.000125000000,   0.00080,
,,,-00.000124000000,   0.00080,
,,,-00.000123000000,   0.00080,
,,,-00.000122000000,   0.00080,
,,,-00.000121000000,   0.00080,
,,,-00.000120000000,   0.00080,
,,,-00.000119000000,   0.00080,
,,,-00.000118000000,   0.00080,
,,,-00.000117000000,   0.00000,
,,,-00.000116000000,   0.00080,
,,,-00.000115000000,   0.00080,
,,,-00.000114000000,   0.00080,
,,,-00.000113000000,   0.00000,
,,,-00.000112000000,   0.00080,
,,,-00.000111000000,   0.00080,
,,,-00.000110000000,   0.00080,
,,,-00.000109000000,   0.00080,
,,,-00.000108000000,   0.00080,
,,,-00.000107000000,   0.00080,
,,,-00.000106000000,   0.00000,
,,,-00.000105000000,   0.00080,
,,,-00.000104000000,   0.00080,
,,,-00.000103000000,   0.00080,
,,,-00.000102000000,   0.00080,
,,,-00.000101000000,   0.00080,
,,,-00.000100000000,   0.00080,
,,,-00.000099000000,   0.00080,
,,,-00.000098000000,   0.00080,
,,,-00.000097000000,   0.00000,
,,,-00.000096000000,   0.00080,
,,,-00.000095000000,   0.00080,
,,,-00.000094000000,   0.00080,
,,,-00.000093000000,   0.00080,
,,,-00.000092000000,   0.00080,
,,,-00.000091000000,   0.00000,
,,,-00.000090000000,   0.00000,
,,,-00.000089000000,   0.00080,
,,,-00.000088000000,   0.00080,
,,,-00.000087000000,   0.00080,
,,,-00.000086000000,   0.00080,
,,,-00.000085000000,   0.00080,
,,,-00.000084000000,   0.00080,
,,,-00.000083000000,   0.00080,
,,,-00.000082000000,   0.00080,
,,,-00.000081000000,   0.00080,
,,,-00.000080000000,   0.00080,
,,,-00.000079000000,   0.00080,
,,,-00.000078000000,   0.00000,
,,,-00.000077000000,   0.00080,
,,,-00.000076000000,   0.00000,
,,,-00.000075000000,   0.00080,
,,,-00.000074000000,   0.00000,
,,,-00.000073000000,   0.00080,
,,,-00.000072000000,   0.00080,
,,,-00.000071000000,   0.00000,
,,,-00.000070000000,   0.00000,
,,,-00.000069000000,   0.00080,
,,,-00.000068000000,   0.00000,
,,,-00.000067000000,   0.00000,
,,,-00.000066000000,   0.00080,
,,,-00.000065000000,   0.00000,
,,,-00.000064000000,   0.00000,
,,,-00.000063000000,   0.00000,
,,,-00.000062000000,   0.00000,
,,,-00.000061000000,   0.00080,
,,,-00.000060000000,   0.00080,
,,,-00.000059000000,   0.00000,
,,,-00.000058000000,   0.00080,
,,,-00.000057000000,   0.00000,
,,,-00.000056000000,   0.00080,
,,,-00.000055000000,   0.00080,
,,,-00.000054000000,   0.00000,
,,,-00.000053000000,   0.00080,
,,,-00.000052000000,   0.00080,
,,,-00.000051000000,   0.00080,
,,,-00.000050000000,   0.00080,
,,,-00.000049000000,   0.00080,
,,,-00.000048000000,   0.00000,
,,,-00.000047000000,   0.00000,
,,,-00.000046000000,   0.00080,
,,,-00.000045000000,   0.00080,
,,,-00.000044000000,   0.00080,
,,,-00.000043000000,   0.00000,
,,,-00.000042000000,   0.00240,
,,,-00.000041000000,  -0.00080,
,,,-00.000040000000,   0.00080,
,,,-00.000039000000,   0.00000,
,,,-00.000038000000,   0.00080,
,,,-00.000037000000,   0.00080,
,,,-00.000036000000,   0.00080,
,,,-00.000035000000,   0.00080,
,,,-00.000034000000,   0.00080,
,,,-00.000033000000,   0.00000,
,,,-00.000032000000,   0.00080,
,,,-00.000031000000,   0.00080,
,,,-00.000030000000,   0.00080,
,,,-00.000029000000,   0.00080,
,,,-00.000028000000,   0.00000,
,,,-00.000027000000,   0.00080,
,,,-00.000026000000,   0.00000,
,,,-00.000025000000,   0.00000,
,,,-00.000024000000,   0.00000,
,,,-00.000023000000,   0.00080,
,,,-00.000022000000,   0.00080,
,,,-00.000021000000,   0.00080,
,,,-00.000020000000,   0.00000,
,,,-00.000019000000,   0.00160,
,,,-00.000018000000,   0.00000,
,,,-00.000017000000,   0.00080,
,,,-00.000016000000,   0.00000,
,,,-00.000015000000,   0.00080,
,,,-00.000014000000,   0.00080,
,,,-00.000013000000,   0.00000,
,,,-00.000012000000,   0.00080,
,,,-00.000011000000,   0.00080,
,,,-00.000010000000,   0.00080,
,,,-00.000009000000,   0.00080,
,,,-00.000008000000,   0.00080,
,,,-00.000007000000,   0.00080,
,,,-00.000006000000,   0.00000,
,,,-00.000005000000,   0.00080,
,,,-00.000004000000,   0.00080,
,,,-00.000003000000,   0.00080,
,,,-00.000002000000,   0.00000,
,,,-00.000001000000,   0.00080,
,,,-00.000000000000,   0.00080,
,,,00.000001000000,   0.00080,
,,,00.000002000000,   0.00000,
,,,00.000003000000,   0.00160,
,,,00.000004000000,   0.00160,
,,,00.000005000000,   0.00160,
,,,00.000006000000,   0.00240,
,,,00.000007000000,   0.00320,
,,,00.000008000000,   0.00240,
,,,00.000009000000,   0.00320,
,,,00.000010000000,   0.00240,
,,,00.000011000000,   0.00160,
,,,00.000012000000,   0.00080,
,,,00.000013000000,   0.00160,
,,,00.000014000000,   0.00080,
,,,00.000015000000,   0.00000,
,,,00.000016000000,   0.00080,
,,,00.000017000000,   0.00160,
,,,00.000018000000,   0.01760,
,,,00.000019000000,   0.07360,
,,,00.000020000000,   0.09280,
,,,00.000021000000,   0.09280,
,,,00.000022000000,   0.09280,
,,,00.000023000000,   0.09280,
,,,00.000024000000,   0.09280,
,,,00.000025000000,   0.09280,
,,,00.000026000000,   0.09280,
,,,00.000027000000,   0.09280,
,,,00.000028000000,   0.09280,
,,,00.000029000000,   0.09280,
,,,00.000030000000,   0.09280,
,,,00.000031000000,   0.09280,
,,,00.000032000000,   0.09280,
,,,00.000033000000,   0.09280,
,,,00.000034000000,   0.09280,
,,,00.000035000000,   0.09280,
,,,00.000036000000,   0.09280,
,,,00.000037000000,   0.09280,
,,,00.000038000000,   0.09280,
,,,00.000039000000,   0.09280,
,,,00.000040000000,   0.09280,
,,,00.000041000000,   0.09280,
,,,00.000042000000,   0.09280,
,,,00.000043000000,   0.09280,
,,,00.000044000000,   0.09280,
,,,00.000045000000,   0.09280,
,,,00.000046000000,   0.09280,
,,,00.000047000000,   0.09280,
,,,00.000048000000,   0.09280,
,,,00.000049000000,   0.09280,
,,,00.000050000000,   0.09280,
,,,00.000051000000,   0.09280,
,,,00.000052000000,   0.09280,
,,,00.000053000000,   0.09280,
,,,00.000054000000,   0.08720,
,,,00.000055000000,   0.05840,
,,,00.000056000000,   0.02960,
,,,00.000057000000,   0.00320,
,,,00.000058000000,  -0.02000,
,,,00.000059000000,  -0.04080,
,,,00.000060000000,  -0.06000,
,,,00.000061000000,  -0.07600,
,,,00.000062000000,  -0.09040,
,,,00.000063000000,  -0.10400,
,,,00.000064000000,  -0.10880,
,,,00.000065000000,  -0.10880,
,,,00.000066000000,  -0.10880,
,,,00.000067000000,  -0.10880,
,,,00.000068000000,  -0.10880,
,,,00.000069000000,  -0.10880,
,,,00.000070000000,  -0.10880,
,,,00.000071000000,  -0.10880,
,,,00.000072000000,  -0.10880,
,,,00.000073000000,  -0.10880,
,,,00.000074000000,  -0.10880,
,,,00.000075000000,  -0.10880,
,,,00.000076000000,  -0.10880,
,,,00.000077000000,  -0.10880,
,,,00.000078000000,  -0.10880,
,,,00.000079000000,  -0.10880,
,,,00.000080000000,  -0.10880,
,,,00.000081000000,  -0.10880,
,,,00.000082000000,  -0.10880,
,,,00.000083000000,  -0.10880,
,,,00.000084000000,  -0.10880,
,,,00.000085000000,  -0.10880,
,,,00.000086000000,  -0.10880,
,,,00.000087000000,  -0.10880,
,,,00.000088000000,  -0.10880,
,,,00.000089000000,  -0.10880,
,,,00.000090000000,  -0.10880,
,,,00.000091000000,  -0.10880,
,,,00.000092000000,  -0.10880,
,,,00.000093000000,  -0.10880,
,,,00.000094000000,  -0.10880,
,,,00.000095000000,  -0.10880,
,,,00.000096000000,  -0.10880,
,,,00.000097000000,  -0.10880,
,,,00.000098000000,  -0.10880,
,,,00.000099000000,  -0.10880,
,,,00.000100000000,  -0.10880,
,,,00.000101000000,  -0.10880,
,,,00.000102000000,  -0.10880,
,,,00.000103000000,  -0.10880,
,,,00.000104000000,  -0.10880,
,,,00.000105000000,  -0.10880,
,,,00.000106000000,  -0.10880,
,,,00.000107000000,  -0.10880,
,,,00.000108000000,  -0.10880,
,,,00.000109000000,  -0.10880,
,,,00.000110000000,  -0.10880,
,,,00.000111000000,  -0.10880,
,,,00.000112000000,  -0.10880,
,,,00.000113000000,  -0.10880,
,,,00.000114000000,  -0.10880,
,,,00.000115000000,  -0.10880,
,,,00.000116000000,  -0.10880,
,,,00.000117000000,  -0.10880,
,,,00.000118000000,  -0.10880,
,,,00.000119000000,  -0.10880,
,,,00.000120000000,  -0.10880,
,,,00.000121000000,  -0.10880,
,,,00.000122000000,  -0.10880,
,,,00.000123000000,  -0.10880,
,,,00.000124000000,  -0.10880,
,,,00.000125000000,  -0.10880,
,,,00.000126000000,  -0.10880,
,,,00.000127000000,  -0.10880,
,,,00.000128000000,  -0.10880,
,,,00.000129000000,  -0.10880,
,,,00.000130000000,  -0.10880,
,,,00.000131000000,  -0.10880,
,,,00.000132000000,  -0.10880,
,,,00.000133000000,  -0.10880,
,,,00.000134000000,  -0.10880,
,,,00.000135000000,  -0.10800,
,,,00.000136000000,  -0.10880,
,,,00.000137000000,  -0.10880,
,,,00.000138000000,  -0.10880,
,,,00.000139000000,  -0.10880,
,,,00.000140000000,  -0.10880,
,,,00.000141000000,  -0.10880,
,,,00.000142000000,  -0.10880,
,,,00.000143000000,  -0.10880,
,,,00.000144000000,  -0.10880,
,,,00.000145000000,  -0.10880,
,,,00.000146000000,  -0.10880,
,,,00.000147000000,  -0.10880,
,,,00.000148000000,  -0.10880,
,,,00.000149000000,  -0.10880,
,,,00.000150000000,  -0.10880,
,,,00.000151000000,  -0.10880,
,,,00.000152000000,  -0.10880,
,,,00.000153000000,  -0.10880,
,,,00.000154000000,  -0.10880,
,,,00.000155000000,  -0.10880,
,,,00.000156000000,  -0.10880,
,,,00.000157000000,  -0.10880,
,,,00.000158000000,  -0.10880,
,,,00.000159000000,  -0.10880,
,,,00.000160000000,  -0.10800,
,,,00.000161000000,  -0.10720,
,,,00.000162000000,  -0.10560,
,,,00.000163000000,  -0.10480,
,,,00.000164000000,  -0.10400,
,,,00.000165000000,  -0.10240,
,,,00.000166000000,  -0.10160,
,,,00.000167000000,  -0.09920,
,,,00.000168000000,  -0.09840,
,,,00.000169000000,  -0.09760,
,,,00.000170000000,  -0.09600,
,,,00.000171000000,  -0.09520,
,,,00.000172000000,  -0.09360,
,,,00.000173000000,  -0.09280,
,,,00.000174000000,  -0.09120,
,,,00.000175000000,  -0.09040,
,,,00.000176000000,  -0.08960,
,,,00.000177000000,  -0.08800,
,,,00.000178000000,  -0.08720,
,,,00.000179000000,  -0.08720,
,,,00.000180000000,  -0.08640,
,,,00.000181000000,  -0.08480,
,,,00.000182000000,  -0.08320,
,,,00.000183000000,  -0.08240,
,,,00.000184000000,  -0.08240,
,,,00.000185000000,  -0.08080,
,,,00.000186000000,  -0.08000,
,,,00.000187000000,  -0.07920,
,,,00.000188000000,  -0.07760,
,,,00.000189000000,  -0.07680,
,,,00.000190000000,  -0.07600,
,,,00.000191000000,  -0.07520,
,,,00.000192000000,  -0.07440,
,,,00.000193000000,  -0.07360,
,,,00.000194000000,  -0.07200,
,,,00.000195000000,  -0.07200,
,,,00.000196000000,  -0.07120,
,,,00.000197000000,  -0.06960,
,,,00.000198000000,  -0.06880,
,,,00.000199000000,  -0.06880,
,,,00.000200000000,  -0.06800,
,,,00.000201000000,  -0.06720,
,,,00.000202000000,  -0.06640,
,,,00.000203000000,  -0.06560,
,,,00.000204000000,  -0.06480,
,,,00.000205000000,  -0.06400,
,,,00.000206000000,  -0.06320,
,,,00.000207000000,  -0.06320,
,,,00.000208000000,  -0.06240,
,,,00.000209000000,  -0.06160,
,,,00.000210000000,  -0.06080,
,,,00.000211000000,  -0.06000,
,,,00.000212000000,  -0.05920,
,,,00.000213000000,  -0.05840,
,,,00.000214000000,  -0.05840,
,,,00.000215000000,  -0.05760,
,,,00.000216000000,  -0.05760,
,,,00.000217000000,  -0.05680,
,,,00.000218000000,  -0.05600,
,,,00.000219000000,  -0.05600,
,,,00.000220000000,  -0.05520,
,,,00.000221000000,  -0.05520,
,,,00.000222000000,  -0.05440,
,,,00.000223000000,  -0.05360,
,,,00.000224000000,  -0.05280,
,,,00.000225000000,  -0.05360,
,,,00.000226000000,  -0.05280,
,,,00.000227000000,  -0.05200,
,,,00.000228000000,  -0.05120,
,,,00.000229000000,  -0.05120,
,,,00.000230000000,  -0.05120,
,,,00.000231000000,  -0.05040,
,,,00.000232000000,  -0.05040,
,,,00.000233000000,  -0.04960,
,,,00.000234000000,  -0.04960,
,,,00.000235000000,  -0.04880,
,,,00.000236000000,  -0.04880,
,,,00.000237000000,  -0.04880,
,,,00.000238000000,  -0.04800,
,,,00.000239000000,  -0.04800,
,,,00.000240000000,  -0.04800,
,,,00.000241000000,  -0.04720,
,,,00.000242000000,  -0.04720,
,,,00.000243000000,  -0.04640,
,,,00.000244000000,  -0.04640,
,,,00.000245000000,  -0.04560,
,,,00.000246000000,  -0.04560,
,,,00.000247000000,  -0.04560,
,,,00.000248000000,  -0.04480,
,,,00.000249000000,  -0.04560,
,,,00.000250000000,  -0.04480,
,,,00.000251000000,  -0.04400,
,,,00.000252000000,  -0.04480,
,,,00.000253000000,  -0.04480,
,,,00.000254000000,  -0.04320,
,,,00.000255000000,  -0.04320,
,,,00.000256000000,  -0.04320,
,,,00.000257000000,  -0.04320,
,,,00.000258000000,  -0.04240,
,,,00.000259000000,  -0.04320,
,,,00.000260000000,  -0.04240,
,,,00.000261000000,  -0.04240,
,,,00.000262000000,  -0.04240,
,,,00.000263000000,  -0.04240,
,,,00.000264000000,  -0.04160,
,,,00.000265000000,  -0.04240,
,,,00.000266000000,  -0.04160,
,,,00.000267000000,  -0.04160,
,,,00.000268000000,  -0.04160,
,,,00.000269000000,  -0.04160,
,,,00.000270000000,  -0.04160,
,,,00.000271000000,  -0.04160,
,,,00.000272000000,  -0.04160,
,,,00.000273000000,  -0.04080,
,,,00.000274000000,  -0.04080,
,,,00.000275000000,  -0.04160,
,,,00.000276000000,  -0.04080,
,,,00.000277000000,  -0.04080,
,,,00.000278000000,  -0.04080,
,,,00.000279000000,  -0.04000,
,,,00.000280000000,  -0.04080,
,,,00.000281000000,  -0.04000,
,,,00.000282000000,  -0.04000,
,,,00.000283000000,  -0.04080,
,,,00.000284000000,  -0.04080,
,,,00.000285000000,  -0.04000,
,,,00.000286000000,  -0.04080,
,,,00.000287000000,  -0.04080,
,,,00.000288000000,  -0.04000,
,,,00.000289000000,  -0.04080,
,,,00.000290000000,  -0.04080,
,,,00.000291000000,  -0.04080,
,,,00.000292000000,  -0.04080,
,,,00.000293000000,  -0.04000,
,,,00.000294000000,  -0.04080,
,,,00.000295000000,  -0.04080,
,,,00.000296000000,  -0.04160,
,,,00.000297000000,  -0.04080,
,,,00.000298000000,  -0.04080,
,,,00.000299000000,  -0.04160,
,,,00.000300000000,  -0.04080,
,,,00.000301000000,  -0.04080,
,,,00.000302000000,  -0.04160,
,,,00.000303000000,  -0.04160,
,,,00.000304000000,  -0.04080,
,,,00.000305000000,  -0.04160,
,,,00.000306000000,  -0.04160,
,,,00.000307000000,  -0.04160,
,,,00.000308000000,  -0.04160,
,,,00.000309000000,  -0.04160,
,,,00.000310000000,  -0.04160,
,,,00.000311000000,  -0.04240,
,,,00.000312000000,  -0.04160,
,,,00.000313000000,  -0.04240,
,,,00.000314000000,  -0.04240,
,,,00.000315000000,  -0.04240,
,,,00.000316000000,  -0.04240,
,,,00.000317000000,  -0.04240,
,,,00.000318000000,  -0.04240,
,,,00.000319000000,  -0.04240,
,,,00.000320000000,  -0.04240,
,,,00.000321000000,  -0.04320,
,,,00.000322000000,  -0.04320,
,,,00.000323000000,  -0.04320,
,,,00.000324000000,  -0.04320,
,,,00.000325000000,  -0.04320,
,,,00.000326000000,  -0.04400,
,,,00.000327000000,  -0.04320,
,,,00.000328000000,  -0.04320,
,,,00.000329000000,  -0.04400,
,,,00.000330000000,  -0.04400,
,,,00.000331000000,  -0.04400,
,,,00.000332000000,  -0.04480,
,,,00.000333000000,  -0.04480,
,,,00.000334000000,  -0.04480,
,,,00.000335000000,  -0.04480,
,,,00.000336000000,  -0.04480,
,,,00.000337000000,  -0.04560,
,,,00.000338000000,  -0.04560,
,,,00.000339000000,  -0.04560,
,,,00.000340000000,  -0.04560,
,,,00.000341000000,  -0.04640,
,,,00.000342000000,  -0.04560,
,,,00.000343000000,  -0.04560,
,,,00.000344000000,  -0.04560,
,,,00.000345000000,  -0.04640,
,,,00.000346000000,  -0.04640,
,,,00.000347000000,  -0.04720,
,,,00.000348000000,  -0.04720,
,,,00.000349000000,  -0.04720,
,,,00.000350000000,  -0.04800,
,,,00.000351000000,  -0.04720,
,,,00.000352000000,  -0.04720,
,,,00.000353000000,  -0.04720,
,,,00.000354000000,  -0.04720,
,,,00.000355000000,  -0.04800,
,,,00.000356000000,  -0.04800,
,,,00.000357000000,  -0.04880,
,,,00.000358000000,  -0.04880,
,,,00.000359000000,  -0.04880,
,,,00.000360000000,  -0.04880,
,,,00.000361000000,  -0.04880,
,,,00.000362000000,  -0.04880,
,,,00.000363000000,  -0.04880,
,,,00.000364000000,  -0.04960,
,,,00.000365000000,  -0.04880,
,,,00.000366000000,  -0.04880,
,,,00.000367000000,  -0.04960,
,,,00.000368000000,  -0.04720,
,,,00.000369000000,  -0.04880,
,,,00.000370000000,  -0.04960,
,,,00.000371000000,  -0.04960,
,,,00.000372000000,  -0.04960,
,,,00.000373000000,  -0.04960,
,,,00.000374000000,  -0.04960,
,,,00.000375000000,  -0.05040,
,,,00.000376000000,  -0.04960,
